TOPIXのボラティリティをStanで推定する
…
このモデルは非線形な状態空間モデル（1本目の式が観測方程式、2本目の式が状態方程式）ですので、粒子フィルタかStanなどのMCMCで推定することになります。今回はStanを用います。

三つ目の方法としては、以上二つのように収益率\(r_t\)の時系列から\(\sigma_t\)を推定するのではなく、分単位のような細かい収益率データを用いて直接\(\sigma_t\)を求めるアプローチがあります。本記事からは外れるので詳細は触れませんが、\(t\)日における1分間隔や5分間隔程度の細かい間隔の収益率の2乗を1日分足し合わせたものが\(\sigma_t\)の推定量になり、この推定量をRealized Volatility3と呼びます。

実装

データの整形

2001/6/25～2022/1/30のTOPIXを用いました。データは私が口座を持っている証券会社からCSVでダウンロードしました。

CSVのパスを与えると、不要な行・列を飛ばして読み込み、終値の前日に対する対数変化率（100倍してパーセント表記にする）を計算する関数を作っています。1日ラグを取る都合上、初日の対数変化率はNAになるため、1行目を削除しています。

closeは終値、retは対前日の対数変化率を指します。

## # A tibble: 5,047 x 3
##    date       close    ret
##    <date>     <dbl>  <dbl>
##  1 2001-06-26 1296.  0.352
##  2 2001-06-27 1288. -0.585
##  3 2001-06-28 1279. -0.749
##  4 2001-06-29 1301.  1.72 
##  5 2001-07-02 1287. -1.09 
##  6 2001-07-03 1293.  0.504
##  7 2001-07-04 1278  -1.20 
##  8 2001-07-05 1275. -0.259
##  9 2001-07-06 1254. -1.67 
## 10 2001-07-09 1238. -1.26 
## # ... with 5,037 more rows
…
