東京電力株のベータ値をカルマンフィルタで推定する
…
df <- left_join(
  tepco %>% 
    select(date,close,ret),
  topix %>% 
    select(date,close,ret) %>% 
    rename(close_topix=close,ret_topix=ret),
  by="date"
) %>% 
  # 最初の1日目の対数変化率がNAなのを除外する
  slice(2:nrow(.))

df

## # A tibble: 5,047 x 5
##    date       close    ret close_topix ret_topix
##    <date>     <dbl>  <dbl>       <dbl>     <dbl>
##  1 2001-06-26  3300  0.608       1296.     0.352
##  2 2001-06-27  3270 -0.913       1288.    -0.585
##  3 2001-06-28  3240 -0.922       1279.    -0.749
##  4 2001-06-29  3230 -0.309       1301.     1.72 
##  5 2001-07-02  3180 -1.56        1287.    -1.09 
##  6 2001-07-03  3210  0.939       1293.     0.504
##  7 2001-07-04  3250  1.24        1278     -1.20 
##  8 2001-07-05  3350  3.03        1275.    -0.259
##  9 2001-07-06  3320 -0.900       1254.    -1.67 
## 10 2001-07-09  3220 -3.06        1238.    -1.26 
## # ... with 5,037 more rows
…
